{
  "icons": [
    {
      "src": "/static/version1588831572795/frontend/Scandiweb/pwa/en_US/Magento_Theme/icons/android/icon_512x512.14e58d42f270319e429e9066ec82df1c.png",
      "sizes": "512x512",
      "type": "image/png"
    },
    {
      "src": "/static/version1588831572795/frontend/Scandiweb/pwa/en_US/Magento_Theme/icons/android/icon_192x192.4dd5d8873761c2da36dadcf99f6d5920.png",
      "sizes": "192x192",
      "type": "image/png"
    },
    {
      "src": "/static/version1588831572795/frontend/Scandiweb/pwa/en_US/Magento_Theme/icons/android/icon_144x144.442b3d49081c3a90793c8bb1fbf87ad0.png",
      "sizes": "144x144",
      "type": "image/png"
    },
    {
      "src": "/static/version1588831572795/frontend/Scandiweb/pwa/en_US/Magento_Theme/icons/android/icon_96x96.c0af16bcccd11453e8b1c3430de9ce43.png",
      "sizes": "96x96",
      "type": "image/png"
    },
    {
      "src": "/static/version1588831572795/frontend/Scandiweb/pwa/en_US/Magento_Theme/icons/android/icon_72x72.683f69a6893168024bac794dd7381bf0.png",
      "sizes": "72x72",
      "type": "image/png"
    },
    {
      "src": "/static/version1588831572795/frontend/Scandiweb/pwa/en_US/Magento_Theme/icons/android/icon_48x48.bdc0c3a574cc06b90c32b891fd6c6465.png",
      "sizes": "48x48",
      "type": "image/png"
    },
    {
      "src": "/static/version1588831572795/frontend/Scandiweb/pwa/en_US/Magento_Theme/icons/android/icon_36x36.9d97bb8fc6c76f29d9e90cdca02bb507.png",
      "sizes": "36x36",
      "type": "image/png"
    },
    {
      "src": "/static/version1588831572795/frontend/Scandiweb/pwa/en_US/Magento_Theme/icons/ios/icon_640x640.c74c69d497117b469af4e52643f959cd.png",
      "sizes": "640x640",
      "type": "image/png"
    },
    {
      "src": "/static/version1588831572795/frontend/Scandiweb/pwa/en_US/Magento_Theme/icons/ios/icon_750x750.7834f2228ee9ae50ecadd75b2511dc57.png",
      "sizes": "750x750",
      "type": "image/png"
    },
    {
      "src": "/static/version1588831572795/frontend/Scandiweb/pwa/en_US/Magento_Theme/icons/ios/icon_1242x1242.c7b835ca87c39a7bef4b5320fe6c7e1a.png",
      "sizes": "1242x1242",
      "type": "image/png"
    },
    {
      "src": "/static/version1588831572795/frontend/Scandiweb/pwa/en_US/Magento_Theme/icons/ios/icon_1125x1125.d5ecd0edaa6c42f49d8bd0060f37098e.png",
      "sizes": "1125x1125",
      "type": "image/png"
    },
    {
      "src": "/static/version1588831572795/frontend/Scandiweb/pwa/en_US/Magento_Theme/icons/ios/icon_1536x1536.606fae12ca7958651ba5690ab4aa9ada.png",
      "sizes": "1536x1536",
      "type": "image/png"
    },
    {
      "src": "/static/version1588831572795/frontend/Scandiweb/pwa/en_US/Magento_Theme/icons/ios/icon_1668x1668.b8547a2b7bd1239bdd54a2576b52264c.png",
      "sizes": "1668x1668",
      "type": "image/png"
    },
    {
      "src": "/static/version1588831572795/frontend/Scandiweb/pwa/en_US/Magento_Theme/icons/ios/icon_2048x2048.63dae46942f66b14aae6039d8f2adad3.png",
      "sizes": "2048x2048",
      "type": "image/png"
    },
    {
      "src": "/static/version1588831572795/frontend/Scandiweb/pwa/en_US/Magento_Theme/icons/ios/icon_1024x1024.c51525ef800057984975764af2388c1f.png",
      "sizes": "1024x1024",
      "type": "image/png"
    },
    {
      "src": "/static/version1588831572795/frontend/Scandiweb/pwa/en_US/Magento_Theme/icons/ios/icon_180x180.fb448598880afee8c8d46152e16cac3d.png",
      "sizes": "180x180",
      "type": "image/png"
    },
    {
      "src": "/static/version1588831572795/frontend/Scandiweb/pwa/en_US/Magento_Theme/icons/ios/icon_167x167.c16edf750c33f8d2eb93dc01afe94b3b.png",
      "sizes": "167x167",
      "type": "image/png"
    },
    {
      "src": "/static/version1588831572795/frontend/Scandiweb/pwa/en_US/Magento_Theme/icons/ios/icon_152x152.fbd5719aed2fdd40a3cff53cbdbe5cdd.png",
      "sizes": "152x152",
      "type": "image/png"
    },
    {
      "src": "/static/version1588831572795/frontend/Scandiweb/pwa/en_US/Magento_Theme/icons/ios/icon_120x120.b2e51adf3056bc5081202dd86d40517e.png",
      "sizes": "120x120",
      "type": "image/png"
    }
  ],
  "name": "ScandiPWA",
  "short_name": "ScandiPWA",
  "orientation": "portrait",
  "display": "standalone",
  "start_url": "/",
  "description": "ScandiPWA theme DEMO store",
  "background_color": "#ffffff",
  "lang": "en-US",
  "theme_color": "#ffffff"
}